<svg viewBox="0 0 32 32" xmlns="http://www.w3.org/2000/svg">
  <path
    d="M20.702 9.528 16 0l-4.702 9.528L.783 11.056l7.609 7.416-1.797 10.472L16 24l9.405 4.944-1.797-10.472 7.609-7.416-10.515-1.528ZM16 22.87l-.012.007L16 2.26V2.26l4.039 8.182 9.03 1.312-6.535 6.369 1.543 8.993L16 22.87Z" />
</svg>
